…
#### Sample Content of tidy data set


```r
tidyData
```

```
## # A tibble: 180 x 81
## # Groups:   activitylabel [6]
##    activitylabel subject `tBodyAcc-mean()-X` `tBodyAcc-mean()-Y`
##    <chr>           <int>               <dbl>               <dbl>
##  1 LAYING              1               0.222             -0.0405
##  2 LAYING              2               0.281             -0.0182
##  3 LAYING              3               0.276             -0.0190
##  4 LAYING              4               0.264             -0.0150
##  5 LAYING              5               0.278             -0.0183
##  6 LAYING              6               0.249             -0.0103
##  7 LAYING              7               0.250             -0.0204
##  8 LAYING              8               0.261             -0.0212
##  9 LAYING              9               0.259             -0.0205
## 10 LAYING             10               0.280             -0.0243
## # ... with 170 more rows, and 77 more variables:
## #   `tBodyAcc-mean()-Z` <dbl>, `tBodyAcc-std()-X` <dbl>,
## #   `tBodyAcc-std()-Y` <dbl>, `tBodyAcc-std()-Z` <dbl>,
## #   `tGravityAcc-mean()-X` <dbl>, `tGravityAcc-mean()-Y` <dbl>,
## #   `tGravityAcc-mean()-Z` <dbl>, `tGravityAcc-std()-X` <dbl>,
## #   `tGravityAcc-std()-Y` <dbl>, `tGravityAcc-std()-Z` <dbl>,
## #   `tBodyAccJerk-mean()-X` <dbl>, `tBodyAccJerk-mean()-Y` <dbl>,
## #   `tBodyAccJerk-mean()-Z` <dbl>, `tBodyAccJerk-std()-X` <dbl>,
## #   `tBodyAccJerk-std()-Y` <dbl>, `tBodyAccJerk-std()-Z` <dbl>,
…
